{
    "ints" : [
        "pdgId",
        "barcode",
  "ftagTruthParentBarcode"
    ],
    "floats" : [
        "pt",
        "mass",
        "eta",
        "phi",
        "decayVertexZ",
        "Lxy"
    ]
}
