{
    "jet_collection": "AntiKt4EMPFlowJets",
    "calibration": {
        "file": "fragments/pflow-calibration.json"
    },
    "selection": {
        "file": "fragments/pflow-selection.json"
    },
    "vertex_collection": "PrimaryVertices",
    "truth_vertex_collection": "TruthPrimaryVertices",
    "dl2_configs": [],
    "variables": {
        "file": "fragments/pflow-variables.json",
        "btagging": {
            "floats": [
                "DL1r20210824r22_pb",
                "DL1r20210824r22_pc",
                "DL1r20210824r22_pu",
                "DL1dv00_pb",
                "DL1dv00_pc",
                "DL1dv00_pu",
                "DL1d20210824r22_pu",
                "DL1d20210824r22_pc",
                "DL1d20210824r22_pb",
                "GN2v00_pb",
                "GN2v00_pc",
                "GN2v00_pu",
                "GN2v01_pb",
                "GN2v01_pc",
                "GN2v01_pu",
                "GN2v01_ptau"
            ]
        },
        "jet" : {
            "ints": [
                "hits_nL0",
                "hits_nL1",
                "hits_nL2",
                "hits_nL3",
                "hits_sum",
                "n_truth_promptLepton",
                "n_tracks",
                "HadronConeExclTruthLabelPdgId",
                "HadronConeExclTruthLabelChildPdgId"
            ],
            "floats": [
                "hits_averageDeltaRToJetAxisL0",
                "hits_averageDeltaRToJetAxisL1",
                "hits_averageDeltaRToJetAxisL2",
                "hits_averageDeltaRToJetAxisL3",
                "hits_SOAP",
                "hits_multiJump03",
                "hits_inversSum",
                "HadronConeExclTruthLabelLxy", 
                "HadronConeExclTruthLabelPt"
            ]
        },
        "default_mapping": {
            "file": "fragments/default-mapping.json"
        }
    },
    "hits": {
        "container_name": "JetAssociatedPixelClusters",
        "origin": "primary_vertex",
        "output_size": 250,
        "distance_to_jet": 0.1,
        "use_splitProbability": true,
        "save_endcap_hits": true,
        "save_only_clean_hits": true,
        "save_sct": true,
        "save_hits": "all",
        "output_name": "hits",
        "variables": [
            "valid",
            "x_local",
            "y_local",
            "z_local",
            "x_global",
            "y_global",
            "z_global",
            "deta",
            "dphi",
            "abs_deta",
            "j",
            "a",
            "b",
            "radius",
            "radius_local",
            "layer",
            "isBarrel",
            "isSCT",
            "isFake",
            "broken",
            "DCSState",
            "hasBSError",
            "isSplit",
            "splitProbability1",
            "splitProbability2", 
            "HitContainedInTrack", 
            "IDmatchingTrack", 
            "dR_closestTrackHit",
            "dR_JetHit",
            "EnergyDepB", 
            "EnergyDepC",
            "TruthBarcode"
        ]
    },
    "tracks": [
        {
            "n_to_save": 40,
            "selection": {
                "file": "fragments/r22default-track-cuts.json"
            },
            "sort_order": "d0_significance",
            "btagging_link": "btaggingLink",
            "input_name": "BTagTrackToJetAssociator",
            "output_name": "tracks",
            "variables": {
                "file": "fragments/pflow-track-variables-all.json",
                "ints" :[
                    "TrackID"
                ]
            },
            "ip_prefix": "btagIp_"
        }
    ],
    "truths": [
        {
            "file": "fragments/overlap-leptons-TRUTH3.json"
        },
        {
            "association": {
                "file": "fragments/baseline-truth-kinematics.json",
                "particles": "truth_hadrons"
            },
            "association_name": "truth_hadrons",
            "output": {
                "n_to_save": 5,
                "sort_order": "pt"
            }
        },
        {
            "association": {
                "file": "fragments/baseline-truth-kinematics.json",
                "particles": "promptLepton"
            },
            "decorate_summary": true
        }
    ],
    "decorate": {
        "jet_aug": false,
        "btag_jes": true,
        "soft_muon": false,
        "track_sv_info": true

    },
    "btagging_link": "btaggingLink",
    "ca_blocks": [
        {"block": "Trackless"}
    ]
}
