{   "mc21":false,
    "mc24":false,
    "data":false,
    "offline_jets": false,
    "do_track_matching": false,
    "emtopo_jets": true,
    "additional_chains": [],

    "dumper": {
        "jet_collection": "HLT_AntiKt10EMPFlowCSSKSoftDropBeta100Zcut10Jets_nojcalib_ftf",
        "calibration": {},
        "selection": {
            "minimum_jet_pt": 250000,
            "maximum_jet_absolute_eta": 2.0
        },
        "vertex_collection": "HLT_IDVertex_FS",
        "dl2_configs": [
            {
                "nn_file_path": "dev/BTagging/20230220trig/xbb/ConeAntiKtVR30Rmax4Rmin02PV0TrackJets/network.json",
                "remapping": {
                    "ConeAntiKtVR30Rmax4Rmin02PV0TrackJets": "PV0TrackJets"
                },
                "engine": "xbb",
                "where": "jet"
            }
        ],
        "variables": {
            "jet": {
                "ints": [
                    "jetPtRank",
                    "n_truth_top"
                ],
                "floats": [
                    "pt",
                    "eta",
                    "mass",
                    "energy",
                    "min_dr_truth_top",
                    "Xbb2020v3_Higgs",
                    "Xbb2020v3_QCD",
                    "Xbb2020v3_Top"
                ]
            },
            "event" : {
                "customs": [
                    "mcEventWeight",
                    "eventNumber",
                    "averageInteractionsPerCrossing",
                    "actualInteractionsPerCrossing"
                ]
            },
            "default_mapping": {
                "file": "fragments/default-mapping.json"
            }
        },
        "tracks": [
        ],
        "truths": [
            {
                "association": {
                    "containers":[
                        "TruthParticles"
                    ],
                    "particles": "top",
                    "pt_minimum": 1e5,
                    "abs_eta_maximum": 2.5,
                    "dr_maximum": 0.4
                },
                "decorate_summary": true
            }
        ],
        "subjets": [
            {
                "input_name": "PV0TrackJets",
                "output_name": "subjets",
                "btagging_link": "btaggingLink",
                "tracks_name": "GhostTrack_ftf",
                "min_jet_pt": 7000,
                "max_abs_eta": 2.5,
                "num_const": 0,
                "n_subjets_to_save": 3,
                "variables": {
                    "file": "fragments/trigger-subjet-variables.json"
                }
            }
        ],
        "decorate": {
            "jet_aug": false,
            "btag_jes": false,
            "soft_muon": false,
            "track_sv_info": false,
            "lepton_decay_label": false
        },
        "btagging_link": ""
    }
}