{

    "smear": [
        {
            "smear_factor": 2, 
            "trk_pt": 1,
            "trk_eff": 0.95,
            "jet_track_decor": "TracksForEFTag_SF2"
        },
        {
            "smear_factor": 5, 
            "trk_pt": 2,
            "trk_eff": 0.99,
            "jet_track_decor": "TracksForEFTag_SF5"
        }
    ],
    "dumper":{
        "file": "upgrade.json",
        "dl2_configs": [
            {
                "nn_file_path": "/BTagging/20221010/GN1run4/antikt4emtopo/network.onnx",
                "where": "jet",
                "engine": "gnn",
                "remapping": {
                    "BTagTrackToJetAssociator": "TracksForEFTag_SF2",
                    "GN1run420221010_pu": "GN1run420221010_SF2_pu",
                    "GN1run420221010_pb": "GN1run420221010_SF2_pb",
                    "GN1run420221010_pc": "GN1run420221010_SF2_pc",
                    "btagIp_":"poboyIp_"
                }
            },
            {
                "nn_file_path": "/BTagging/20221008/dipsrun4/antikt4emtopo/network.json",
                "where": "jet",
                "remapping": {
                    "BTagTrackToJetAssociator": "TracksForEFTag_SF2",
                    "dipsrun420221008_pu": "dipsrun420221008_SF2_pu",
                    "dipsrun420221008_pb": "dipsrun420221008_SF2_pb",
                    "dipsrun420221008_pc": "dipsrun420221008_SF2_pc",
                    "btagIp_":"poboyIp_"
                }
            }
        ],
        "variables": {
            "jet": {
                "floats": [
                    "GN1run420221010_SF2_pu",
                    "GN1run420221010_SF2_pb",
                    "GN1run420221010_SF2_pc",
                    "dipsrun420221008_SF2_pu",
                    "dipsrun420221008_SF2_pb",
                    "dipsrun420221008_SF2_pc",
                    "TruthJetPVz"
                ]
            }
        },
        "tracks": [
            {
                "n_to_save": 40,
                "selection": {
                    "file": "fragments/ip3d-upgrade-loose-track-cuts.json"
                },
                "sort_order": "abs_beamspot_d0",
                "btagging_link": "",
                "input_name": "TracksForEFTag_SF2",
                "output_name": "tracks_sf2",
                "variables": {
                    "file": "fragments/pflow-track-variables-upgrade.json",
                    "halves": [
                        "chiSquared",
                        "numberDoF"
                    ]
                },
                "ip_prefix": "poboyIp_"
            },
            {
                "n_to_save": 40,
                "selection": {
                    "file": "fragments/ip3d-upgrade-loose-track-cuts.json"
                },
                "sort_order": "abs_beamspot_d0",
                "btagging_link": "",
                "input_name": "TracksForEFTag_SF5",
                "output_name": "tracks_sf5",
                "variables": {
                    "file": "fragments/pflow-track-variables-upgrade.json",
                    "halves": [
                        "chiSquared",
                        "numberDoF"
                    ]
                },
                "ip_prefix": "poboyIp_"
            }
        ]
    }
}
