mc23_13p6TeV.801168.Py8EG_A14NNPDF23LO_jj_JZ3.deriv.DAOD_LLP1.e8514_s4162_r14622_p6202
mc23_13p6TeV.801169.Py8EG_A14NNPDF23LO_jj_JZ4.deriv.DAOD_LLP1.e8514_s4162_r14622_p6202
mc23_13p6TeV.801170.Py8EG_A14NNPDF23LO_jj_JZ5.deriv.DAOD_LLP1.e8514_s4162_r14622_p6202
mc23_13p6TeV.801171.Py8EG_A14NNPDF23LO_jj_JZ6.deriv.DAOD_LLP1.e8514_s4162_r14622_p6202
mc23_13p6TeV.801172.Py8EG_A14NNPDF23LO_jj_JZ7.deriv.DAOD_LLP1.e8514_s4162_r14622_p6202
mc23_13p6TeV.801173.Py8EG_A14NNPDF23LO_jj_JZ8.deriv.DAOD_LLP1.e8514_s4162_r14622_p6202
mc23_13p6TeV.801174.Py8EG_A14NNPDF23LO_jj_JZ9incl.deriv.DAOD_LLP1.e8514_s4162_r14622_p6202
mc23_13p6TeV.801168.Py8EG_A14NNPDF23LO_jj_JZ3.deriv.DAOD_LLP1.e8514_s4159_r15224_p6202
mc23_13p6TeV.801169.Py8EG_A14NNPDF23LO_jj_JZ4.deriv.DAOD_LLP1.e8514_s4159_r15224_p6202
mc23_13p6TeV.801170.Py8EG_A14NNPDF23LO_jj_JZ5.deriv.DAOD_LLP1.e8514_s4159_r15224_p6202
mc23_13p6TeV.801171.Py8EG_A14NNPDF23LO_jj_JZ6.deriv.DAOD_LLP1.e8514_s4159_r15224_p6202
mc23_13p6TeV.801172.Py8EG_A14NNPDF23LO_jj_JZ7.deriv.DAOD_LLP1.e8514_s4159_r15224_p6202
mc23_13p6TeV.801173.Py8EG_A14NNPDF23LO_jj_JZ8.deriv.DAOD_LLP1.e8514_s4159_r15224_p6202
mc23_13p6TeV.801174.Py8EG_A14NNPDF23LO_jj_JZ9incl.deriv.DAOD_LLP1.e8514_s4159_r15224_p6202
